C:\Users\Miguel\eclipse-workspace\CRISSERVICE\src\es\upm\dit\apsv\cris\dataset\PublicationPublisher.java
C:\Users\Miguel\eclipse-workspace\CRISSERVICE\src\es\upm\dit\apsv\cris\dao\ResearcherDAOImplementation.java
C:\Users\Miguel\eclipse-workspace\CRISSERVICE\src\es\upm\dit\apsv\cris\dao\PublicationDAO.java
C:\Users\Miguel\eclipse-workspace\CRISSERVICE\src\es\upm\dit\apsv\cris\model\Researcher.java
C:\Users\Miguel\eclipse-workspace\CRISSERVICE\src\es\upm\dit\apsv\cris\dao\ResearcherDAO.java
C:\Users\Miguel\eclipse-workspace\CRISSERVICE\src\es\upm\dit\apsv\cris\rest\CRISAppTest.java
C:\Users\Miguel\eclipse-workspace\CRISSERVICE\src\es\upm\dit\apsv\cris\dataset\CSV2CRISSERVICE.java
C:\Users\Miguel\eclipse-workspace\CRISSERVICE\src\es\upm\dit\apsv\cris\rest\ResearcherResource.java
C:\Users\Miguel\eclipse-workspace\CRISSERVICE\src\es\upm\dit\apsv\cris\model\Publication.java
C:\Users\Miguel\eclipse-workspace\CRISSERVICE\src\es\upm\dit\apsv\cris\dao\PublicationDAOImplementation.java
C:\Users\Miguel\eclipse-workspace\CRISSERVICE\src\es\upm\dit\apsv\cris\dao\SessionFactoryService.java
C:\Users\Miguel\eclipse-workspace\CRISSERVICE\src\es\upm\dit\apsv\cris\dataset\CSV2DB.java
C:\Users\Miguel\eclipse-workspace\CRISSERVICE\src\es\upm\dit\apsv\cris\rest\CRISApp.java
